Unit 1 Project: Geopolitical System Analysis
…
countries <- unique(democracy_data$country_code)

democ_func <- function(x){
  mean(x, na.rm = TRUE) * 100
}

democracy_data |>
  group_by(country_code) |>
  summarize(
    total_years = sum(!is.na(is_democracy)),
    democratic_years = sum(is_democracy, na.rm = TRUE),
    pct_democ = democ_func(is_democracy)
  )

# A tibble: 208 × 4
   country_code total_years democratic_years pct_democ
   <chr>              <int>            <int>     <dbl>
 1 ABW                   71               71     100  
 2 AFG                   71                0       0  
 3 AGO                   71                0       0  
 4 AIA                   71               62      87.3
 5 ALB                   71               28      39.4
 6 ARE                   71                0       0  
 7 ARG                   71               54      76.1
 8 ARM                   71               25      35.2
 9 ATG                   71               50      70.4
10 AUS                   71               71     100  
# ℹ 198 more rows
…
Summary 2: ratio of lower to upper house members

house_ratio <- dem_df %>%
  filter(is.na(lower_house_members)==FALSE & is.na(upper_house_members)==FALSE)%>%
  mutate(chamber_ratio = lower_house_members/upper_house_members)

house_ratio %>%
  select(country_name,chamber_ratio)%>%
  head(30)

# A tibble: 30 × 2
   country_name chamber_ratio
   <chr>                <dbl>
 1 Afghanistan           2.57
 2 Afghanistan           2.57
 3 Afghanistan           2.57
 4 Afghanistan           2.57
 5 Afghanistan           2.57
 6 Afghanistan           2.57
 7 Afghanistan           2.57
 8 Afghanistan           2.57
 9 Afghanistan           1.83
10 Afghanistan           1.83
# ℹ 20 more rows
…
# new dataframe

hdiXdem_df <- avg_dem %>%
  left_join(avg_happiness, by = "country_name")

# now check again for unmatched countries
hdiXdem_df %>%
  filter(is.na(avg_well_being)) %>%
  distinct(country_name) %>%
  arrange(country_name)

# A tibble: 60 × 1
   country_name          
   <chr>                 
 1 Anguilla              
 2 Antigua and Barbuda   
 3 Aruba                 
 4 Bahamas               
 5 Barbados              
 6 Bermuda               
 7 British Virgin Islands
 8 Brunei                
 9 Cape Verde            
10 Cayman Islands        
# ℹ 50 more rows
…
